<?xml version="1.0" encoding="UTF-8" standalone="no"?>
<!-- Created with Inkscape (http://www.inkscape.org/) -->

<svg
   xmlns:dc="http://purl.org/dc/elements/1.1/"
   xmlns:cc="http://creativecommons.org/ns#"
   xmlns:rdf="http://www.w3.org/1999/02/22-rdf-syntax-ns#"
   xmlns:svg="http://www.w3.org/2000/svg"
   xmlns="http://www.w3.org/2000/svg"
   xmlns:sodipodi="http://sodipodi.sourceforge.net/DTD/sodipodi-0.dtd"
   xmlns:inkscape="http://www.inkscape.org/namespaces/inkscape"
   width="74.375961mm"
   height="17.657824mm"
   viewBox="0 0 74.375961 17.657823"
   version="1.1"
   id="svg267"
   inkscape:version="0.92.1 r15371"
   sodipodi:docname="benevalibre-logo.svg">
  <defs
     id="defs261">
    <clipPath
       id="clipPath992"
       clipPathUnits="userSpaceOnUse">
      <path
         inkscape:connector-curvature="0"
         id="path990"
         d="M 0,0 H 447.874 V 623.622 H 0 Z" />
    </clipPath>
    <clipPath
       id="clipPath958"
       clipPathUnits="userSpaceOnUse">
      <path
         inkscape:connector-curvature="0"
         id="path956"
         d="M 0,0 H 447.874 V 623.622 H 0 Z" />
    </clipPath>
    <clipPath
       id="clipPath992-3"
       clipPathUnits="userSpaceOnUse">
      <path
         inkscape:connector-curvature="0"
         id="path990-6"
         d="M 0,0 H 447.874 V 623.622 H 0 Z" />
    </clipPath>
    <clipPath
       id="clipPath958-7"
       clipPathUnits="userSpaceOnUse">
      <path
         inkscape:connector-curvature="0"
         id="path956-5"
         d="M 0,0 H 447.874 V 623.622 H 0 Z" />
    </clipPath>
  </defs>
  <sodipodi:namedview
     id="base"
     pagecolor="#ffffff"
     bordercolor="#666666"
     borderopacity="1.0"
     inkscape:pageopacity="0.0"
     inkscape:pageshadow="2"
     inkscape:zoom="1.979899"
     inkscape:cx="126.77006"
     inkscape:cy="-91.784893"
     inkscape:document-units="mm"
     inkscape:current-layer="text950"
     showgrid="false"
     inkscape:window-width="1920"
     inkscape:window-height="981"
     inkscape:window-x="0"
     inkscape:window-y="28"
     inkscape:window-maximized="1" />
  <metadata
     id="metadata264">
    <rdf:RDF>
      <cc:Work
         rdf:about="">
        <dc:format>image/svg+xml</dc:format>
        <dc:type
           rdf:resource="http://purl.org/dc/dcmitype/StillImage" />
        <dc:title></dc:title>
      </cc:Work>
    </rdf:RDF>
  </metadata>
  <g
     inkscape:label="Calque 1"
     inkscape:groupmode="layer"
     id="layer1"
     transform="translate(-1.6917521,-1.5799742)">
    <g
       aria-label="Valoriser l'engagement"
       style="font-style:italic;font-variant:normal;font-weight:normal;font-stretch:normal;font-size:5.45616674px;font-family:'Open Sans';-inkscape-font-specification:OpenSans-Italic;writing-mode:lr-tb;fill:#397386;fill-opacity:1;fill-rule:nonzero;stroke:none;stroke-width:0.35277775"
       id="text950">
      <path
         d="m 17.278271,17.402194 q 0.162512,-0.383637 0.431591,-0.90048 l 1.276125,-2.469662 h 0.508851 l -2.080696,3.894979 h -0.479546 l -0.431591,-3.894979 h 0.452904 l 0.258422,2.477654 q 0.05328,0.522172 0.05328,0.892488 z"
         style="stroke-width:0.35277775"
         id="path46"
         inkscape:connector-curvature="0" />
      <path
         d="m 20.694513,14.953846 q 0.245101,0 0.436919,0.133207 0.191818,0.130543 0.298384,0.378309 h 0.02931 l 0.178497,-0.458233 h 0.338347 l -0.620746,2.919902 h -0.354331 l 0.06927,-0.556807 h -0.02131 q -0.476882,0.610089 -1.004383,0.610089 -0.370316,0 -0.580783,-0.26375 -0.210467,-0.26375 -0.210467,-0.721983 0,-0.554142 0.189154,-1.028359 0.189154,-0.474218 0.522172,-0.743297 0.333018,-0.269078 0.729976,-0.269078 z m -0.506188,2.656151 q 0.258422,0 0.51418,-0.245101 0.255758,-0.247765 0.415606,-0.642058 0.159849,-0.396958 0.159849,-0.793915 0,-0.274407 -0.149192,-0.43692 -0.149192,-0.162513 -0.391629,-0.162513 -0.277071,0 -0.516844,0.229117 -0.237109,0.229116 -0.37298,0.620745 -0.135872,0.391629 -0.135872,0.825885 0,0.303712 0.125215,0.455568 0.125215,0.149192 0.351667,0.149192 z"
         style="stroke-width:0.35277775"
         id="path48"
         inkscape:connector-curvature="0" />
      <path
         d="m 22.67429,17.927031 h -0.447576 l 0.884496,-4.145408 h 0.447576 z"
         style="stroke-width:0.35277775"
         id="path50"
         inkscape:connector-curvature="0" />
      <path
         d="m 25.173774,14.969831 q 0.506187,0 0.799243,0.301048 0.293056,0.298384 0.293056,0.823221 0,0.500859 -0.191818,0.945771 -0.191819,0.444912 -0.519508,0.687349 -0.32769,0.242437 -0.740632,0.242437 -0.511516,0 -0.801908,-0.301048 -0.290391,-0.301049 -0.290391,-0.823221 0,-0.506187 0.194482,-0.951099 0.194483,-0.447576 0.524837,-0.684685 0.330353,-0.239773 0.732639,-0.239773 z m 0.628738,1.062993 q 0,-0.306376 -0.167841,-0.495531 -0.165177,-0.191818 -0.45024,-0.191818 -0.290392,0 -0.522172,0.197147 -0.229117,0.197146 -0.356996,0.548813 -0.125215,0.349003 -0.125215,0.77793 0,0.349003 0.167842,0.540822 0.170505,0.189154 0.487538,0.189154 0.277071,0 0.498195,-0.194483 0.221124,-0.194482 0.343674,-0.551477 0.125215,-0.35966 0.125215,-0.820557 z"
         style="stroke-width:0.35277775"
         id="path52"
         inkscape:connector-curvature="0" />
      <path
         d="m 28.525071,14.953846 q 0.183826,0 0.319698,0.0373 l -0.09591,0.399622 q -0.141199,-0.03463 -0.279735,-0.03463 -0.242437,0 -0.455568,0.159848 -0.210468,0.159849 -0.370316,0.444912 -0.157185,0.2824 -0.231781,0.628738 l -0.285063,1.337401 H 26.67882 l 0.623409,-2.919902 h 0.370316 l -0.05861,0.540821 h 0.02664 q 0.191818,-0.253094 0.317033,-0.362324 0.125214,-0.111894 0.261086,-0.170505 0.138535,-0.06128 0.306376,-0.06128 z"
         style="stroke-width:0.35277775"
         id="path54"
         inkscape:connector-curvature="0" />
      <path
         d="m 29.28704,17.927031 h -0.447576 l 0.62341,-2.919902 h 0.447576 z m 0.301049,-3.665862 q 0,-0.149193 0.08525,-0.242438 0.08525,-0.09591 0.221124,-0.09591 0.234445,0 0.234445,0.239773 0,0.146528 -0.09058,0.247766 -0.08792,0.101237 -0.205139,0.101237 -0.106566,0 -0.175834,-0.06394 -0.06927,-0.0666 -0.06927,-0.18649 z"
         style="stroke-width:0.35277775"
         id="path56"
         inkscape:connector-curvature="0" />
      <path
         d="m 32.02629,17.098482 q 0,0.415606 -0.29572,0.650051 -0.293056,0.23178 -0.828549,0.23178 -0.45024,0 -0.812564,-0.183825 v -0.420935 q 0.18649,0.111894 0.402286,0.173169 0.215795,0.06127 0.399621,0.06127 0.335682,0 0.506188,-0.133207 0.170505,-0.133207 0.170505,-0.34101 0,-0.151856 -0.09324,-0.255758 -0.09324,-0.103902 -0.402286,-0.285063 -0.346339,-0.194483 -0.490202,-0.380973 -0.143864,-0.18649 -0.143864,-0.442248 0,-0.367652 0.269078,-0.59144 0.269079,-0.226452 0.708663,-0.226452 0.455568,0 0.879167,0.197147 l -0.143864,0.364987 -0.149192,-0.0666 q -0.269078,-0.114558 -0.586111,-0.114558 -0.247766,0 -0.388965,0.117222 -0.1412,0.114558 -0.1412,0.298384 0,0.149192 0.09324,0.255758 0.09591,0.106566 0.391629,0.274407 0.285064,0.159848 0.407614,0.274406 0.125215,0.114559 0.18649,0.247766 0.06128,0.130543 0.06128,0.29572 z"
         style="stroke-width:0.35277775"
         id="path58"
         inkscape:connector-curvature="0" />
      <path
         d="m 33.714148,17.980313 q -0.490203,0 -0.769938,-0.290391 -0.279735,-0.290392 -0.279735,-0.804572 0,-0.500859 0.197147,-0.959092 0.199811,-0.460896 0.5275,-0.716654 0.32769,-0.255758 0.721983,-0.255758 0.407614,0 0.612753,0.178498 0.205139,0.175833 0.205139,0.492866 0,0.479546 -0.442247,0.753953 -0.442248,0.271743 -1.265469,0.271743 h -0.08792 l -0.01066,0.213131 q 0,0.349003 0.162513,0.54615 0.165177,0.194482 0.508851,0.194482 0.167841,0 0.343675,-0.04795 0.178497,-0.04796 0.442248,-0.175834 v 0.388965 q -0.25043,0.117222 -0.442248,0.162513 -0.191819,0.04795 -0.423599,0.04795 z m 0.370316,-2.645494 q -0.274407,0 -0.516844,0.250429 -0.239773,0.25043 -0.367652,0.695342 h 0.03197 q 0.607425,0 0.929786,-0.157185 0.325026,-0.159849 0.325026,-0.460897 0,-0.141199 -0.09857,-0.234444 -0.09591,-0.09324 -0.303712,-0.09324 z"
         style="stroke-width:0.35277775"
         id="path60"
         inkscape:connector-curvature="0" />
      <path
         d="m 37.096713,14.953846 q 0.183826,0 0.319697,0.0373 l -0.09591,0.399622 q -0.141199,-0.03463 -0.279735,-0.03463 -0.242437,0 -0.455568,0.159848 -0.210468,0.159849 -0.370316,0.444912 -0.157185,0.2824 -0.231781,0.628738 l -0.285063,1.337401 H 35.25046 l 0.62341,-2.919902 h 0.370316 l -0.05861,0.540821 h 0.02664 q 0.191819,-0.253094 0.317034,-0.362324 0.125214,-0.111894 0.261086,-0.170505 0.138535,-0.06128 0.306376,-0.06128 z"
         style="stroke-width:0.35277775"
         id="path62"
         inkscape:connector-curvature="0" />
      <path
         d="M 39.271956,17.927031 H 38.82438 l 0.884495,-4.145408 h 0.447577 z"
         style="stroke-width:0.35277775"
         id="path64"
         inkscape:connector-curvature="0" />
      <path
         d="M 41.350498,14.032052 40.942884,15.43872 H 40.65782 l 0.191819,-1.406668 z"
         style="stroke-width:0.35277775"
         id="path66"
         inkscape:connector-curvature="0" />
      <path
         d="m 42.553129,17.980313 q -0.490202,0 -0.769937,-0.290391 -0.279735,-0.290392 -0.279735,-0.804572 0,-0.500859 0.197146,-0.959092 0.199811,-0.460896 0.527501,-0.716654 0.32769,-0.255758 0.721983,-0.255758 0.407614,0 0.612753,0.178498 0.205139,0.175833 0.205139,0.492866 0,0.479546 -0.442248,0.753953 -0.442248,0.271743 -1.265468,0.271743 h -0.08792 l -0.01066,0.213131 q 0,0.349003 0.162513,0.54615 0.165177,0.194482 0.508852,0.194482 0.167841,0 0.343674,-0.04795 0.178498,-0.04796 0.442248,-0.175834 v 0.388965 q -0.250429,0.117222 -0.442248,0.162513 -0.191818,0.04795 -0.423599,0.04795 z m 0.370316,-2.645494 q -0.274406,0 -0.516844,0.250429 -0.239772,0.25043 -0.367651,0.695342 h 0.03197 q 0.607425,0 0.929787,-0.157185 0.325025,-0.159849 0.325025,-0.460897 0,-0.141199 -0.09857,-0.234444 -0.09591,-0.09324 -0.303713,-0.09324 z"
         style="stroke-width:0.35277775"
         id="path68"
         inkscape:connector-curvature="0" />
      <path
         d="m 45.874427,17.927031 0.394293,-1.843588 q 0.05328,-0.277071 0.05328,-0.383637 0,-0.167841 -0.09591,-0.269078 -0.09325,-0.101238 -0.301048,-0.101238 -0.237109,0 -0.463561,0.159849 -0.223788,0.159849 -0.396958,0.455568 -0.170505,0.29572 -0.258422,0.716655 l -0.269078,1.265469 h -0.447576 l 0.623409,-2.919902 h 0.370316 l -0.05861,0.540821 h 0.02664 q 0.255757,-0.325026 0.492866,-0.458233 0.239773,-0.135871 0.495531,-0.135871 0.338346,0 0.532829,0.18649 0.197147,0.183826 0.197147,0.516844 0,0.210467 -0.06128,0.479546 l -0.380972,1.790305 z"
         style="stroke-width:0.35277775"
         id="path70"
         inkscape:connector-curvature="0" />
      <path
         d="m 50.011033,15.007129 -0.0666,0.285063 -0.562135,0.06394 q 0.10923,0.165177 0.10923,0.420934 0,0.508852 -0.311705,0.812564 -0.30904,0.301049 -0.828548,0.301049 -0.146528,0 -0.223789,-0.02131 -0.370316,0.1412 -0.370316,0.349003 0,0.10923 0.08792,0.146528 0.08792,0.03463 0.255758,0.05595 l 0.311705,0.0373 q 0.48221,0.05861 0.698006,0.234445 0.218459,0.175833 0.218459,0.516844 0,0.490202 -0.388965,0.759281 -0.388965,0.269078 -1.094963,0.269078 -0.516844,0 -0.8099,-0.197146 -0.293055,-0.194483 -0.293055,-0.551478 0,-0.279735 0.191818,-0.484874 0.191818,-0.205139 0.620745,-0.349003 -0.207803,-0.10923 -0.207803,-0.322362 0,-0.183825 0.135872,-0.314369 0.135871,-0.133207 0.378308,-0.247765 -0.167841,-0.08525 -0.274407,-0.250429 -0.106566,-0.167841 -0.106566,-0.388965 0,-0.516844 0.317034,-0.847198 0.319697,-0.330354 0.815228,-0.330354 0.207803,0 0.410278,0.05328 z m -2.837313,3.43941 q 0,0.205139 0.173169,0.325025 0.17317,0.119887 0.51418,0.119887 0.484874,0 0.756617,-0.170506 0.274407,-0.167841 0.274407,-0.476881 0,-0.165177 -0.143864,-0.261086 -0.143864,-0.09591 -0.490203,-0.133208 l -0.423598,-0.04263 q -0.319698,0.0666 -0.490203,0.234445 -0.170505,0.167841 -0.170505,0.40495 z m 0.740632,-2.331126 q 0,0.226452 0.119886,0.346338 0.119887,0.117223 0.333018,0.117223 0.210468,0 0.367652,-0.111894 0.157185,-0.111894 0.239773,-0.306377 0.08525,-0.197147 0.08525,-0.426263 0,-0.21846 -0.117223,-0.333018 -0.117222,-0.114558 -0.335682,-0.114558 -0.207803,0 -0.364987,0.10923 -0.154521,0.106566 -0.242437,0.301048 -0.08525,0.191818 -0.08525,0.418271 z"
         style="stroke-width:0.35277775"
         id="path72"
         inkscape:connector-curvature="0" />
      <path
         d="m 51.516399,14.953846 q 0.245101,0 0.436919,0.133207 0.191819,0.130543 0.298384,0.378309 h 0.02931 l 0.178498,-0.458233 h 0.338346 l -0.620746,2.919902 h -0.354331 l 0.06927,-0.556807 h -0.02131 q -0.476882,0.610089 -1.004383,0.610089 -0.370316,0 -0.580783,-0.26375 -0.210467,-0.26375 -0.210467,-0.721983 0,-0.554142 0.189154,-1.028359 0.189154,-0.474218 0.522172,-0.743297 0.333018,-0.269078 0.729976,-0.269078 z m -0.506188,2.656151 q 0.258422,0 0.51418,-0.245101 0.255758,-0.247765 0.415606,-0.642058 0.159849,-0.396958 0.159849,-0.793915 0,-0.274407 -0.149192,-0.43692 -0.149192,-0.162513 -0.391629,-0.162513 -0.277071,0 -0.516844,0.229117 -0.237109,0.229116 -0.37298,0.620745 -0.135872,0.391629 -0.135872,0.825885 0,0.303712 0.125215,0.455568 0.125215,0.149192 0.351667,0.149192 z"
         style="stroke-width:0.35277775"
         id="path74"
         inkscape:connector-curvature="0" />
      <path
         d="m 55.827302,15.007129 -0.0666,0.285063 -0.562134,0.06394 q 0.10923,0.165177 0.10923,0.420934 0,0.508852 -0.311705,0.812564 -0.309041,0.301049 -0.828549,0.301049 -0.146527,0 -0.223788,-0.02131 -0.370316,0.1412 -0.370316,0.349003 0,0.10923 0.08792,0.146528 0.08792,0.03463 0.255758,0.05595 l 0.311705,0.0373 q 0.48221,0.05861 0.698005,0.234445 0.21846,0.175833 0.21846,0.516844 0,0.490202 -0.388965,0.759281 -0.388965,0.269078 -1.094963,0.269078 -0.516844,0 -0.8099,-0.197146 -0.293056,-0.194483 -0.293056,-0.551478 0,-0.279735 0.191819,-0.484874 0.191818,-0.205139 0.620745,-0.349003 -0.207803,-0.10923 -0.207803,-0.322362 0,-0.183825 0.135872,-0.314369 0.135871,-0.133207 0.378308,-0.247765 -0.167841,-0.08525 -0.274407,-0.250429 -0.106566,-0.167841 -0.106566,-0.388965 0,-0.516844 0.317033,-0.847198 0.319698,-0.330354 0.815229,-0.330354 0.207803,0 0.410278,0.05328 z m -2.837313,3.43941 q 0,0.205139 0.173169,0.325025 0.17317,0.119887 0.51418,0.119887 0.484874,0 0.756617,-0.170506 0.274407,-0.167841 0.274407,-0.476881 0,-0.165177 -0.143864,-0.261086 -0.143864,-0.09591 -0.490203,-0.133208 l -0.423598,-0.04263 q -0.319698,0.0666 -0.490203,0.234445 -0.170505,0.167841 -0.170505,0.40495 z m 0.740632,-2.331126 q 0,0.226452 0.119886,0.346338 0.119887,0.117223 0.333018,0.117223 0.210468,0 0.367652,-0.111894 0.157185,-0.111894 0.239773,-0.306377 0.08525,-0.197147 0.08525,-0.426263 0,-0.21846 -0.117223,-0.333018 -0.117222,-0.114558 -0.335682,-0.114558 -0.207803,0 -0.364987,0.10923 -0.154521,0.106566 -0.242438,0.301048 -0.08525,0.191818 -0.08525,0.418271 z"
         style="stroke-width:0.35277775"
         id="path76"
         inkscape:connector-curvature="0" />
      <path
         d="m 56.941038,17.980313 q -0.490202,0 -0.769937,-0.290391 -0.279735,-0.290392 -0.279735,-0.804572 0,-0.500859 0.197146,-0.959092 0.199811,-0.460896 0.527501,-0.716654 0.327689,-0.255758 0.721983,-0.255758 0.407614,0 0.612753,0.178498 0.205139,0.175833 0.205139,0.492866 0,0.479546 -0.442248,0.753953 -0.442248,0.271743 -1.265468,0.271743 h -0.08792 l -0.01066,0.213131 q 0,0.349003 0.162513,0.54615 0.165177,0.194482 0.508852,0.194482 0.167841,0 0.343674,-0.04795 0.178498,-0.04796 0.442248,-0.175834 v 0.388965 q -0.250429,0.117222 -0.442248,0.162513 -0.191818,0.04795 -0.423599,0.04795 z m 0.370316,-2.645494 q -0.274406,0 -0.516844,0.250429 -0.239773,0.25043 -0.367651,0.695342 h 0.03197 q 0.607425,0 0.929787,-0.157185 0.325025,-0.159849 0.325025,-0.460897 0,-0.141199 -0.09857,-0.234444 -0.09591,-0.09324 -0.303713,-0.09324 z"
         style="stroke-width:0.35277775"
         id="path78"
         inkscape:connector-curvature="0" />
      <path
         d="m 60.174419,17.927031 0.394294,-1.843588 q 0.04795,-0.25043 0.04795,-0.359659 0,-0.186491 -0.08259,-0.290392 -0.08259,-0.103902 -0.282399,-0.103902 -0.223789,0 -0.43692,0.159849 -0.210467,0.159849 -0.37298,0.458233 -0.159849,0.29572 -0.247766,0.71399 l -0.269078,1.265469 h -0.44757 l 0.623409,-2.919902 h 0.370316 l -0.05861,0.540821 h 0.02664 q 0.23178,-0.317033 0.460897,-0.455569 0.23178,-0.138535 0.476881,-0.138535 0.301049,0 0.463561,0.173169 0.162513,0.17317 0.191819,0.48221 h 0.02131 q 0.229116,-0.333018 0.487538,-0.492866 0.258422,-0.162513 0.522172,-0.162513 0.338347,0 0.522173,0.181162 0.18649,0.181162 0.18649,0.5275 0,0.181162 -0.05861,0.474218 l -0.383636,1.790305 h -0.452905 l 0.394294,-1.843588 q 0.05328,-0.277071 0.05328,-0.388965 0,-0.165177 -0.09324,-0.26375 -0.09058,-0.101238 -0.287727,-0.101238 -0.215796,0 -0.426263,0.154521 -0.210467,0.15452 -0.370316,0.439583 -0.157185,0.2824 -0.239773,0.671365 l -0.285063,1.332072 z"
         style="stroke-width:0.35277775"
         id="path80"
         inkscape:connector-curvature="0" />
      <path
         d="m 64.388716,17.980313 q -0.490203,0 -0.769938,-0.290391 -0.279735,-0.290392 -0.279735,-0.804572 0,-0.500859 0.197147,-0.959092 0.199811,-0.460896 0.5275,-0.716654 0.32769,-0.255758 0.721983,-0.255758 0.407614,0 0.612754,0.178498 0.205139,0.175833 0.205139,0.492866 0,0.479546 -0.442248,0.753953 -0.442248,0.271743 -1.265469,0.271743 h -0.08792 l -0.01066,0.213131 q 0,0.349003 0.162513,0.54615 0.165177,0.194482 0.508851,0.194482 0.167841,0 0.343675,-0.04795 0.178497,-0.04796 0.442248,-0.175834 v 0.388965 q -0.25043,0.117222 -0.442248,0.162513 -0.191819,0.04795 -0.423599,0.04795 z m 0.370316,-2.645494 q -0.274407,0 -0.516844,0.250429 -0.239773,0.25043 -0.367652,0.695342 h 0.03197 q 0.607425,0 0.929786,-0.157185 0.325026,-0.159849 0.325026,-0.460897 0,-0.141199 -0.09857,-0.234444 -0.09591,-0.09324 -0.303712,-0.09324 z"
         style="stroke-width:0.35277775"
         id="path82"
         inkscape:connector-curvature="0" />
      <path
         d="m 67.709998,17.927031 0.394294,-1.843588 q 0.05328,-0.277071 0.05328,-0.383637 0,-0.167841 -0.09591,-0.269078 -0.09325,-0.101238 -0.301048,-0.101238 -0.237109,0 -0.463561,0.159849 -0.223788,0.159849 -0.396957,0.455568 -0.170506,0.29572 -0.258422,0.716655 l -0.269079,1.265469 h -0.447576 l 0.62341,-2.919902 h 0.370316 l -0.05861,0.540821 h 0.02664 q 0.255758,-0.325026 0.492867,-0.458233 0.239773,-0.135871 0.49553,-0.135871 0.338347,0 0.532829,0.18649 0.197147,0.183826 0.197147,0.516844 0,0.210467 -0.06128,0.479546 l -0.380972,1.790305 z"
         style="stroke-width:0.35277775"
         id="path84"
         inkscape:connector-curvature="0" />
      <path
         d="m 69.968383,17.615326 q 0.146528,0 0.383637,-0.06927 v 0.343675 q -0.09058,0.0373 -0.223788,0.06394 -0.133208,0.02664 -0.213132,0.02664 -0.333018,0 -0.511516,-0.157184 -0.175833,-0.159849 -0.175833,-0.474218 0,-0.175833 0.04796,-0.399621 l 0.338346,-1.603815 h -0.458233 l 0.0373,-0.194482 0.492867,-0.207804 0.333018,-0.607424 h 0.261086 l -0.146528,0.671364 h 0.729975 l -0.06927,0.338346 H 70.06696 l -0.343674,1.609143 q -0.04796,0.231781 -0.04796,0.351667 0,0.149192 0.07726,0.229116 0.07726,0.07992 0.215796,0.07992 z"
         style="stroke-width:0.35277775"
         id="path86"
         inkscape:connector-curvature="0" />
    </g>
    <g
       transform="matrix(0.35277777,0,0,-0.35277777,-40.12021,192.07997)"
       id="g952">
      <g
         clip-path="url(#clipPath958-7)"
         id="g954">
        <g
           transform="translate(161.1497,535.4515)"
           id="g960">
          <path
             inkscape:connector-curvature="0"
             id="path962"
             style="fill:#397386;fill-opacity:1;fill-rule:nonzero;stroke:none"
             d="m 0,0 h 6.946 c 2.706,0 4.715,-0.402 6.028,-1.206 1.311,-0.803 1.967,-2.054 1.967,-3.752 0,-1.117 -0.286,-2.07 -0.857,-2.86 -0.572,-0.79 -1.326,-1.299 -2.262,-1.526 V -9.48 c 1.236,-0.327 2.13,-0.872 2.684,-1.635 0.554,-0.763 0.831,-1.752 0.831,-2.969 0,-1.807 -0.679,-3.23 -2.036,-4.27 -1.359,-1.04 -3.208,-1.56 -5.551,-1.56 H 0 Z m 5.38,-7.641 h 1.621 c 0.771,0 1.369,0.159 1.791,0.476 0.422,0.318 0.633,0.79 0.633,1.417 0,1.117 -0.844,1.675 -2.533,1.675 H 5.38 Z m 0,-3.937 v -4.181 h 1.893 c 1.68,0 2.52,0.708 2.52,2.125 0,0.662 -0.225,1.171 -0.674,1.525 -0.45,0.354 -1.101,0.531 -1.955,0.531 z" />
        </g>
        <g
           transform="translate(187.0833,515.2654)"
           id="g964">
          <path
             inkscape:connector-curvature="0"
             id="path966"
             style="fill:#397386;fill-opacity:1;fill-rule:nonzero;stroke:none"
             d="m 0,0 c -2.569,0 -4.565,0.683 -5.986,2.05 -1.421,1.367 -2.132,3.312 -2.132,5.836 0,2.607 0.659,4.606 1.975,6 1.317,1.394 3.197,2.091 5.639,2.091 2.324,0 4.12,-0.606 5.387,-1.818 1.267,-1.213 1.9,-2.958 1.9,-5.238 V 6.552 h -9.52 c 0.036,-0.863 0.351,-1.539 0.946,-2.03 0.595,-0.49 1.405,-0.735 2.432,-0.735 0.934,0 1.795,0.088 2.581,0.265 0.785,0.177 1.636,0.479 2.553,0.906 V 1.13 C 4.939,0.704 4.077,0.409 3.188,0.245 2.298,0.082 1.235,0 0,0 m -2.874,17.176 v 0.395 c 1.398,1.498 2.286,2.465 2.663,2.901 0.377,0.436 0.688,0.826 0.933,1.172 h 5.83 V 21.357 C 5.825,20.776 4.826,20.036 3.556,19.137 2.284,18.238 1.321,17.585 0.668,17.176 Z m 2.561,-4.822 c -0.626,0 -1.151,-0.197 -1.573,-0.592 -0.423,-0.395 -0.67,-1.015 -0.743,-1.86 h 4.577 c -0.018,0.745 -0.229,1.34 -0.634,1.785 -0.404,0.444 -0.946,0.667 -1.627,0.667" />
        </g>
        <g
           transform="translate(206.6145,515.5379)"
           id="g968">
          <path
             inkscape:connector-curvature="0"
             id="path970"
             style="fill:#397386;fill-opacity:1;fill-rule:nonzero;stroke:none"
             d="m 0,0 v 8.417 c 0,1.027 -0.147,1.801 -0.442,2.323 -0.295,0.522 -0.77,0.783 -1.423,0.783 -0.9,0 -1.549,-0.359 -1.948,-1.076 -0.4,-0.718 -0.6,-1.947 -0.6,-3.691 V 0 h -5.325 v 15.432 h 4.017 l 0.668,-1.907 h 0.314 c 0.454,0.727 1.083,1.271 1.885,1.635 0.804,0.363 1.728,0.545 2.773,0.545 1.707,0 3.035,-0.496 3.983,-1.485 0.95,-0.99 1.424,-2.384 1.424,-4.181 L 5.326,0 Z" />
        </g>
        <g
           transform="translate(223.0139,515.2654)"
           id="g972">
          <path
             inkscape:connector-curvature="0"
             id="path974"
             style="fill:#397386;fill-opacity:1;fill-rule:nonzero;stroke:none"
             d="m 0,0 c -2.569,0 -4.565,0.683 -5.986,2.05 -1.421,1.367 -2.132,3.312 -2.132,5.836 0,2.607 0.659,4.606 1.975,6 1.317,1.394 3.197,2.091 5.639,2.091 2.324,0 4.12,-0.606 5.387,-1.818 1.267,-1.213 1.9,-2.958 1.9,-5.238 V 6.552 h -9.52 c 0.036,-0.863 0.351,-1.539 0.946,-2.03 0.595,-0.49 1.405,-0.735 2.432,-0.735 0.934,0 1.795,0.088 2.581,0.265 0.785,0.177 1.636,0.479 2.553,0.906 V 1.13 C 4.939,0.704 4.077,0.409 3.188,0.245 2.298,0.082 1.235,0 0,0 m -2.874,17.176 v 0.395 c 1.398,1.498 2.286,2.465 2.663,2.901 0.377,0.436 0.688,0.826 0.933,1.172 h 5.83 V 21.357 C 5.825,20.776 4.826,20.036 3.556,19.137 2.284,18.238 1.321,17.585 0.668,17.176 Z m 2.561,-4.822 c -0.626,0 -1.151,-0.197 -1.573,-0.592 -0.423,-0.395 -0.67,-1.015 -0.743,-1.86 h 4.577 c -0.018,0.745 -0.229,1.34 -0.634,1.785 -0.404,0.444 -0.946,0.667 -1.627,0.667" />
        </g>
        <g
           transform="translate(236.8528,515.5379)"
           id="g976">
          <path
             inkscape:connector-curvature="0"
             id="path978"
             style="fill:#397386;fill-opacity:1;fill-rule:nonzero;stroke:none"
             d="m 0,0 -5.884,15.432 h 5.558 L 2.289,6.306 C 2.298,6.261 2.315,6.184 2.343,6.075 2.37,5.966 2.397,5.836 2.425,5.687 2.452,5.537 2.477,5.378 2.5,5.21 2.522,5.042 2.534,4.885 2.534,4.74 h 0.095 c 0,0.472 0.082,0.985 0.245,1.539 l 2.738,9.153 h 5.543 L 5.271,0 Z" />
        </g>
        <g
           transform="translate(253.4436,515.2654)"
           id="g980">
          <path
             inkscape:connector-curvature="0"
             id="path982"
             style="fill:#e31380;fill-opacity:1;fill-rule:nonzero;stroke:none"
             d="m 0,0 c -1.28,0 -2.293,0.461 -3.037,1.382 -0.745,0.922 -1.117,2.219 -1.117,3.89 0,1.834 0.315,3.55 0.946,5.148 0.632,1.598 1.501,2.862 2.608,3.793 1.109,0.931 2.326,1.396 3.651,1.396 0.881,0 1.639,-0.206 2.275,-0.619 0.635,-0.414 1.13,-1.015 1.485,-1.805 h 0.135 l 0.845,2.152 h 2.452 L 7.028,0.273 H 4.55 L 4.835,2.67 H 4.754 C 3.319,0.89 1.734,0 0,0 m 1.172,2.588 c 0.744,0 1.475,0.352 2.192,1.056 0.718,0.703 1.308,1.646 1.771,2.826 0.464,1.18 0.695,2.47 0.695,3.868 0,0.799 -0.214,1.442 -0.641,1.928 -0.426,0.485 -0.985,0.728 -1.674,0.728 -0.773,0 -1.499,-0.349 -2.18,-1.049 C 0.654,11.246 0.109,10.295 -0.3,9.092 -0.708,7.889 -0.912,6.642 -0.912,5.353 -0.912,4.427 -0.729,3.734 -0.361,3.276 0.007,2.817 0.518,2.588 1.172,2.588" />
        </g>
      </g>
    </g>
    <path
       inkscape:connector-curvature="0"
       id="path984"
       style="fill:#397386;fill-opacity:1;fill-rule:nonzero;stroke:none;stroke-width:0.35277775"
       d="M 55.597571,10.209627 H 53.71903 V 2.7328467 h 1.878541 z" />
    <g
       transform="matrix(0.35277777,0,0,-0.35277777,-40.12021,192.07997)"
       id="g986">
      <g
         clip-path="url(#clipPath992-3)"
         id="g988">
        <g
           transform="translate(274.9094,534.8113)"
           id="g994">
          <path
             inkscape:connector-curvature="0"
             id="path996"
             style="fill:#397386;fill-opacity:1;fill-rule:nonzero;stroke:none"
             d="M 0,0 C 0,0.799 0.223,1.394 0.668,1.784 1.112,2.174 1.83,2.37 2.82,2.37 3.81,2.37 4.531,2.17 4.985,1.771 5.439,1.371 5.667,0.781 5.667,0 5.667,-1.562 4.718,-2.343 2.82,-2.343 0.94,-2.343 0,-1.562 0,0 M 5.462,-19.273 H 0.137 v 15.432 h 5.325 z" />
        </g>
        <g
           transform="translate(293.5159,531.2425)"
           id="g998">
          <path
             inkscape:connector-curvature="0"
             id="path1000"
             style="fill:#397386;fill-opacity:1;fill-rule:nonzero;stroke:none"
             d="m 0,0 c 1.68,0 3.012,-0.704 3.997,-2.111 0.985,-1.408 1.479,-3.355 1.479,-5.844 0,-2.506 -0.497,-4.469 -1.493,-5.89 -0.994,-1.422 -2.377,-2.132 -4.147,-2.132 -0.571,0 -1.08,0.061 -1.525,0.184 -0.446,0.123 -0.842,0.293 -1.192,0.511 -0.349,0.217 -0.756,0.581 -1.22,1.089 h -0.326 l -0.844,-1.512 H -9.426 V 5.489 h 5.325 V 0.695 c 0,-0.572 -0.063,-1.558 -0.19,-2.956 h 0.19 c 0.518,0.799 1.116,1.376 1.792,1.73 C -1.633,-0.177 -0.863,0 0,0 m -1.948,-4.182 c -0.744,0 -1.289,-0.258 -1.635,-0.776 -0.345,-0.518 -0.518,-1.33 -0.518,-2.438 v -0.749 c 0,-1.262 0.173,-2.168 0.518,-2.717 0.346,-0.55 0.908,-0.825 1.689,-0.825 0.627,0 1.108,0.321 1.444,0.961 0.336,0.64 0.504,1.582 0.504,2.826 0,2.479 -0.667,3.718 -2.002,3.718" />
        </g>
        <g
           transform="translate(311.345,531.2425)"
           id="g1002">
          <path
             inkscape:connector-curvature="0"
             id="path1004"
             style="fill:#397386;fill-opacity:1;fill-rule:nonzero;stroke:none"
             d="m 0,0 c 0.463,0 0.903,-0.036 1.321,-0.109 l 0.3,-0.055 -0.476,-5.026 c -0.437,0.109 -1.041,0.164 -1.812,0.164 -1.163,0 -2.007,-0.266 -2.534,-0.797 -0.527,-0.531 -0.79,-1.296 -0.79,-2.295 v -7.587 h -5.325 v 15.432 h 3.963 l 0.831,-2.465 h 0.258 c 0.446,0.818 1.066,1.478 1.86,1.982 C -1.609,-0.252 -0.809,0 0,0" />
        </g>
        <g
           transform="translate(322.5686,515.2654)"
           id="g1006">
          <path
             inkscape:connector-curvature="0"
             id="path1008"
             style="fill:#397386;fill-opacity:1;fill-rule:nonzero;stroke:none"
             d="m 0,0 c -2.569,0 -4.565,0.683 -5.986,2.05 -1.421,1.367 -2.132,3.312 -2.132,5.836 0,2.607 0.659,4.606 1.975,6 1.317,1.394 3.197,2.091 5.639,2.091 2.324,0 4.12,-0.606 5.387,-1.818 1.267,-1.213 1.9,-2.958 1.9,-5.238 V 6.552 h -9.52 c 0.036,-0.863 0.351,-1.539 0.946,-2.03 0.595,-0.49 1.405,-0.735 2.432,-0.735 0.934,0 1.795,0.088 2.581,0.265 0.785,0.177 1.636,0.479 2.553,0.906 V 1.13 C 4.939,0.704 4.077,0.409 3.188,0.245 2.298,0.082 1.235,0 0,0 m -0.313,12.354 c -0.626,0 -1.151,-0.197 -1.573,-0.592 -0.423,-0.395 -0.67,-1.015 -0.743,-1.86 h 4.577 c -0.018,0.745 -0.229,1.34 -0.634,1.785 -0.404,0.444 -0.946,0.667 -1.627,0.667" />
        </g>
        <g
           transform="translate(141.7371,510.433)"
           id="g1010">
          <path
             inkscape:connector-curvature="0"
             id="path1012"
             style="fill:#e31380;fill-opacity:1;fill-rule:nonzero;stroke:none"
             d="m 0,0 c 3.493,0 6.352,2.858 6.352,6.352 v 16.863 c 0,3.494 -2.859,6.352 -6.352,6.352 h -5.82 -2.875 -2.722 -3.075 -2.211 -0.16 c -0.848,0 -1.658,-0.169 -2.399,-0.474 -1.21,-0.498 -2.236,-1.36 -2.939,-2.449 -0.533,-0.825 -0.882,-1.78 -0.983,-2.804 -0.02,-0.206 -0.031,-0.414 -0.031,-0.625 V 6.352 c 0,-2.865 1.922,-5.301 4.54,-6.086 C -18.1,0.094 -17.492,0 -16.863,0 Z" />
        </g>
        <g
           transform="translate(145.1523,526.0274)"
           id="g1014">
          <path
             inkscape:connector-curvature="0"
             id="path1016"
             style="fill:#ffffff;fill-opacity:1;fill-rule:nonzero;stroke:none"
             d="m 0,0 c -0.36,0.271 -0.932,0.225 -1.351,0.132 -0.482,-0.107 -0.928,-0.331 -1.333,-0.59 -0.388,-0.247 -0.648,-0.6 -0.944,-0.932 -0.498,-0.561 -1.094,-1.053 -1.708,-1.506 -0.319,-0.233 -0.852,-0.359 -1.254,-0.229 -0.036,0.012 -0.073,0.023 -0.107,0.039 -0.334,0.157 -0.439,0.529 -0.562,0.832 -0.099,0.245 -0.19,0.493 -0.275,0.744 -0.147,0.437 -0.166,0.891 -0.164,1.346 0.002,0.453 0.006,0.911 0.099,1.359 0.109,0.543 0.396,1.034 0.593,1.552 0.072,0.19 0.119,0.385 0.16,0.581 0.082,0.389 0.129,0.785 0.226,1.171 0.088,0.333 0.2,0.66 0.284,0.993 0.082,0.332 0.103,0.67 0.169,1.004 0.058,0.286 0.149,0.564 0.222,0.845 0.1,0.378 0.083,0.777 0.067,1.162 C -5.894,8.829 -5.951,9.158 -6.199,9.407 -6.493,9.705 -7.037,9.753 -7.371,9.499 -7.742,9.217 -7.758,8.656 -7.851,8.255 -8.024,7.502 -8.246,6.755 -8.537,6.033 -8.645,5.765 -8.761,5.5 -8.89,5.24 -9.09,4.836 -9.212,4.41 -9.339,3.982 -9.432,3.668 -9.486,3.314 -9.569,2.973 -9.638,2.689 -9.727,2.414 -9.88,2.179 -9.95,2.068 -10.049,1.988 -10.194,1.984 c -0.104,-0.003 -0.246,0.05 -0.318,0.12 -0.139,0.137 -0.044,0.372 -0.037,0.537 0.007,0.159 0.009,0.318 0.025,0.476 0.051,0.545 0.108,1.09 0.151,1.636 0.037,0.455 0.064,0.911 0.065,1.369 10e-4,0.629 -0.039,1.257 -0.049,1.887 -0.009,0.572 0.072,1.141 0.024,1.711 -0.004,0.042 -0.01,0.084 -0.015,0.127 -0.053,0.381 -0.195,0.755 -0.511,1.016 -0.293,0.249 -0.793,0.353 -1.151,0.174 -0.34,-0.167 -0.443,-0.509 -0.457,-0.842 -0.023,-0.467 0.045,-0.932 0.032,-1.4 -0.032,-1.066 -0.222,-2.125 -0.373,-3.18 -0.072,-0.511 -0.08,-1.032 -0.107,-1.545 -0.026,-0.529 -0.065,-1.062 -0.041,-1.594 0.007,-0.183 0.07,-0.694 -0.179,-0.783 -0.495,-0.175 -0.45,0.586 -0.425,0.805 0.044,0.435 -0.049,0.874 -0.136,1.301 -0.092,0.439 -0.276,0.856 -0.351,1.298 -0.056,0.336 -0.099,0.675 -0.156,1.011 -0.085,0.509 -0.149,1.022 -0.219,1.535 -0.062,0.456 -0.11,0.918 -0.307,1.346 -0.198,0.427 -0.772,0.626 -1.209,0.377 -0.931,-0.533 -0.385,-1.865 -0.318,-2.643 0.092,-1.069 0.178,-2.14 0.262,-3.207 0.042,-0.557 0.134,-1.106 0.194,-1.662 0.042,-0.375 0.127,-0.747 0.149,-1.125 0.011,-0.174 0.063,-0.583 -0.145,-0.682 -0.33,-0.159 -0.458,0.295 -0.515,0.5 -0.305,1.075 -1.128,1.944 -1.609,2.949 -0.138,0.288 -0.236,0.593 -0.397,0.871 -0.294,0.504 -0.718,0.964 -1.392,0.782 -0.556,-0.15 -0.339,-0.705 -0.218,-1.08 0.146,-0.458 0.39,-0.88 0.602,-1.315 0.218,-0.438 0.383,-0.893 0.545,-1.35 0.096,-0.27 0.191,-0.539 0.298,-0.807 0.233,-0.594 0.377,-1.187 0.49,-1.811 0.007,-0.034 0.013,-0.069 0.019,-0.104 0.268,-1.471 0.51,-2.946 0.916,-4.392 0.159,-0.567 0.303,-1.139 0.492,-1.699 0.175,-0.524 0.43,-1.028 0.574,-1.56 0.138,-0.514 0.173,-1.045 0.181,-1.573 0.019,-1.174 0.003,-2.349 0.011,-3.522 0.003,-0.336 0.007,-0.673 0.008,-1.008 0.002,-0.075 0.003,-0.296 0.004,-0.522 h 4.733 3.152 c 0.001,0.547 -0.015,1.353 -0.03,1.769 l -0.011,0.013 0.01,0.014 c -0.009,0.252 -0.017,0.447 -0.021,0.502 -0.03,0.498 -0.049,0.986 -0.037,1.474 0.012,0.513 -0.075,1.058 0.16,1.539 0.219,0.446 0.606,0.786 0.952,1.146 0.399,0.411 0.801,0.824 1.18,1.254 0.249,0.283 0.495,0.567 0.793,0.81 0.458,0.372 0.828,0.824 1.159,1.293 0.348,0.491 0.654,1.001 0.998,1.493 0.329,0.471 0.708,0.892 1.118,1.304 0.263,0.265 0.49,0.556 0.754,0.82 0.388,0.387 0.82,0.752 1.096,1.22 C 0.393,-0.646 0.278,-0.208 0,0" />
        </g>
      </g>
    </g>
  </g>
</svg>
